﻿{
  "Group": "nopCommercePlus",
  "FriendlyName": "Card Payment",
  "SystemName": "Payments.StripeCards",
  "Version": "4.00",
  "SupportedVersions": [ "4.40" ],
  "Author": "nopCommercePlus(Forefront Infotech)",
  "DisplayOrder": 1,
  "FileName": "Nop.Plugin.Payments.StripeCards.dll",
  "Description": "This plugin enables credit/debit cards payment with stripe."
}