﻿{
  "Group": "Discount requirements",
  "FriendlyName": "Has auto shipping on at any cart item or on any previous order",
  "SystemName": "DiscountRequirement.IsAutoShipping",
  "Version": "1.00",
  "SupportedVersions": [ "4.40" ],
  "Author": "Mehboob Khan",
  "DisplayOrder": 1,
  "FileName": "Nop.Plugin.DiscountRules.IsAutoShipping.dll",
  "Description": "This plugin allows you to configure discounts for those who are using auto shipping feature in cart"
}